%YAML 1.1
%TAG !u! tag:unity3d.com,2011:
--- !u!1 &3944744374267488234
GameObject:
  m_ObjectHideFlags: 0
  m_CorrespondingSourceObject: {fileID: 0}
  m_PrefabInstance: {fileID: 0}
  m_PrefabAsset: {fileID: 0}
  serializedVersion: 6
  m_Component:
  - component: {fileID: 8306291150703041698}
  - component: {fileID: 4376523819840448819}
  - component: {fileID: 3262298700927295332}
  m_Layer: 0
  m_Name: Layer1
  m_TagString: Untagged
  m_Icon: {fileID: 0}
  m_NavMeshLayer: 0
  m_StaticEditorFlags: 0
  m_IsActive: 1
--- !u!4 &8306291150703041698
Transform:
  m_ObjectHideFlags: 0
  m_CorrespondingSourceObject: {fileID: 0}
  m_PrefabInstance: {fileID: 0}
  m_PrefabAsset: {fileID: 0}
  m_GameObject: {fileID: 3944744374267488234}
  m_LocalRotation: {x: -0, y: -0, z: -0, w: 1}
  m_LocalPosition: {x: 0, y: 0, z: 0}
  m_LocalScale: {x: 1, y: 1, z: 1}
  m_Children: []
  m_Father: {fileID: 2243075909507135321}
  m_RootOrder: 0
  m_LocalEulerAnglesHint: {x: 0, y: 0, z: 0}
--- !u!1839735485 &4376523819840448819
Tilemap:
  m_ObjectHideFlags: 0
  m_CorrespondingSourceObject: {fileID: 0}
  m_PrefabInstance: {fileID: 0}
  m_PrefabAsset: {fileID: 0}
  m_GameObject: {fileID: 3944744374267488234}
  m_Enabled: 1
  m_Tiles:
  - first: {x: 1, y: -2, z: 0}
    second:
      serializedVersion: 2
      m_TileIndex: 24
      m_TileSpriteIndex: 24
      m_TileMatrixIndex: 0
      m_TileColorIndex: 0
      m_TileObjectToInstantiateIndex: 65535
      m_AllTileFlags: 1073741825
  - first: {x: -1, y: -1, z: 0}
    second:
      serializedVersion: 2
      m_TileIndex: 5
      m_TileSpriteIndex: 5
      m_TileMatrixIndex: 0
      m_TileColorIndex: 0
      m_TileObjectToInstantiateIndex: 65535
      m_AllTileFlags: 1073741825
  - first: {x: 1, y: -1, z: 0}
    second:
      serializedVersion: 2
      m_TileIndex: 19
      m_TileSpriteIndex: 19
      m_TileMatrixIndex: 0
      m_TileColorIndex: 0
      m_TileObjectToInstantiateIndex: 65535
      m_AllTileFlags: 1073741825
  - first: {x: 2, y: -1, z: 0}
    second:
      serializedVersion: 2
      m_TileIndex: 20
      m_TileSpriteIndex: 20
      m_TileMatrixIndex: 0
      m_TileColorIndex: 0
      m_TileObjectToInstantiateIndex: 65535
      m_AllTileFlags: 1073741825
  - first: {x: 3, y: -1, z: 0}
    second:
      serializedVersion: 2
      m_TileIndex: 21
      m_TileSpriteIndex: 21
      m_TileMatrixIndex: 0
      m_TileColorIndex: 0
      m_TileObjectToInstantiateIndex: 65535
      m_AllTileFlags: 1073741825
  - first: {x: 4, y: -1, z: 0}
    second:
      serializedVersion: 2
      m_TileIndex: 22
      m_TileSpriteIndex: 22
      m_TileMatrixIndex: 0
      m_TileColorIndex: 0
      m_TileObjectToInstantiateIndex: 65535
      m_AllTileFlags: 1073741825
  - first: {x: 5, y: -1, z: 0}
    second:
      serializedVersion: 2
      m_TileIndex: 23
      m_TileSpriteIndex: 23
      m_TileMatrixIndex: 0
      m_TileColorIndex: 0
      m_TileObjectToInstantiateIndex: 65535
      m_AllTileFlags: 1073741825
  - first: {x: -2, y: 0, z: 0}
    second:
      serializedVersion: 2
      m_TileIndex: 2
      m_TileSpriteIndex: 2
      m_TileMatrixIndex: 0
      m_TileColorIndex: 0
      m_TileObjectToInstantiateIndex: 65535
      m_AllTileFlags: 1073741825
  - first: {x: -1, y: 0, z: 0}
    second:
      serializedVersion: 2
      m_TileIndex: 3
      m_TileSpriteIndex: 3
      m_TileMatrixIndex: 0
      m_TileColorIndex: 0
      m_TileObjectToInstantiateIndex: 65535
      m_AllTileFlags: 1073741825
  - first: {x: 0, y: 0, z: 0}
    second:
      serializedVersion: 2
      m_TileIndex: 4
      m_TileSpriteIndex: 4
      m_TileMatrixIndex: 0
      m_TileColorIndex: 0
      m_TileObjectToInstantiateIndex: 65535
      m_AllTileFlags: 1073741825
  - first: {x: 1, y: 0, z: 0}
    second:
      serializedVersion: 2
      m_TileIndex: 14
      m_TileSpriteIndex: 14
      m_TileMatrixIndex: 0
      m_TileColorIndex: 0
      m_TileObjectToInstantiateIndex: 65535
      m_AllTileFlags: 1073741825
  - first: {x: 2, y: 0, z: 0}
    second:
      serializedVersion: 2
      m_TileIndex: 15
      m_TileSpriteIndex: 15
      m_TileMatrixIndex: 0
      m_TileColorIndex: 0
      m_TileObjectToInstantiateIndex: 65535
      m_AllTileFlags: 1073741825
  - first: {x: 3, y: 0, z: 0}
    second:
      serializedVersion: 2
      m_TileIndex: 16
      m_TileSpriteIndex: 16
      m_TileMatrixIndex: 0
      m_TileColorIndex: 0
      m_TileObjectToInstantiateIndex: 65535
      m_AllTileFlags: 1073741825
  - first: {x: 4, y: 0, z: 0}
    second:
      serializedVersion: 2
      m_TileIndex: 17
      m_TileSpriteIndex: 17
      m_TileMatrixIndex: 0
      m_TileColorIndex: 0
      m_TileObjectToInstantiateIndex: 65535
      m_AllTileFlags: 1073741825
  - first: {x: 5, y: 0, z: 0}
    second:
      serializedVersion: 2
      m_TileIndex: 18
      m_TileSpriteIndex: 18
      m_TileMatrixIndex: 0
      m_TileColorIndex: 0
      m_TileObjectToInstantiateIndex: 65535
      m_AllTileFlags: 1073741825
  - first: {x: -2, y: 1, z: 0}
    second:
      serializedVersion: 2
      m_TileIndex: 0
      m_TileSpriteIndex: 0
      m_TileMatrixIndex: 0
      m_TileColorIndex: 0
      m_TileObjectToInstantiateIndex: 65535
      m_AllTileFlags: 1073741825
  - first: {x: -1, y: 1, z: 0}
    second:
      serializedVersion: 2
      m_TileIndex: 1
      m_TileSpriteIndex: 1
      m_TileMatrixIndex: 0
      m_TileColorIndex: 0
      m_TileObjectToInstantiateIndex: 65535
      m_AllTileFlags: 1073741825
  - first: {x: 0, y: 1, z: 0}
    second:
      serializedVersion: 2
      m_TileIndex: 8
      m_TileSpriteIndex: 8
      m_TileMatrixIndex: 0
      m_TileColorIndex: 0
      m_TileObjectToInstantiateIndex: 65535
      m_AllTileFlags: 1073741825
  - first: {x: 1, y: 1, z: 0}
    second:
      serializedVersion: 2
      m_TileIndex: 9
      m_TileSpriteIndex: 9
      m_TileMatrixIndex: 0
      m_TileColorIndex: 0
      m_TileObjectToInstantiateIndex: 65535
      m_AllTileFlags: 1073741825
  - first: {x: 2, y: 1, z: 0}
    second:
      serializedVersion: 2
      m_TileIndex: 10
      m_TileSpriteIndex: 10
      m_TileMatrixIndex: 0
      m_TileColorIndex: 0
      m_TileObjectToInstantiateIndex: 65535
      m_AllTileFlags: 1073741825
  - first: {x: 3, y: 1, z: 0}
    second:
      serializedVersion: 2
      m_TileIndex: 11
      m_TileSpriteIndex: 11
      m_TileMatrixIndex: 0
      m_TileColorIndex: 0
      m_TileObjectToInstantiateIndex: 65535
      m_AllTileFlags: 1073741825
  - first: {x: 4, y: 1, z: 0}
    second:
      serializedVersion: 2
      m_TileIndex: 12
      m_TileSpriteIndex: 12
      m_TileMatrixIndex: 0
      m_TileColorIndex: 0
      m_TileObjectToInstantiateIndex: 65535
      m_AllTileFlags: 1073741825
  - first: {x: 5, y: 1, z: 0}
    second:
      serializedVersion: 2
      m_TileIndex: 13
      m_TileSpriteIndex: 13
      m_TileMatrixIndex: 0
      m_TileColorIndex: 0
      m_TileObjectToInstantiateIndex: 65535
      m_AllTileFlags: 1073741825
  - first: {x: 0, y: 2, z: 0}
    second:
      serializedVersion: 2
      m_TileIndex: 6
      m_TileSpriteIndex: 6
      m_TileMatrixIndex: 0
      m_TileColorIndex: 0
      m_TileObjectToInstantiateIndex: 65535
      m_AllTileFlags: 1073741825
  - first: {x: 1, y: 2, z: 0}
    second:
      serializedVersion: 2
      m_TileIndex: 7
      m_TileSpriteIndex: 7
      m_TileMatrixIndex: 0
      m_TileColorIndex: 0
      m_TileObjectToInstantiateIndex: 65535
      m_AllTileFlags: 1073741825
  m_AnimatedTiles: {}
  m_TileAssetArray:
  - m_RefCount: 1
    m_Data: {fileID: 11400000, guid: b121432b44755944aa133dfd7c9d486c, type: 2}
  - m_RefCount: 1
    m_Data: {fileID: 11400000, guid: 3e6dad5616c50c842a4451fe0e9c4a14, type: 2}
  - m_RefCount: 1
    m_Data: {fileID: 11400000, guid: a4811adc613e64d4eaffe71f75de762a, type: 2}
  - m_RefCount: 1
    m_Data: {fileID: 11400000, guid: db508cd6d28ab6948900857f14adfc02, type: 2}
  - m_RefCount: 1
    m_Data: {fileID: 11400000, guid: 951c2811152ba694fbd048804ac88940, type: 2}
  - m_RefCount: 1
    m_Data: {fileID: 11400000, guid: 840d3d73ef1f7ef4fab23b785a2c4932, type: 2}
  - m_RefCount: 1
    m_Data: {fileID: 11400000, guid: 480dc39d0dfae564f85ed577eebe6c72, type: 2}
  - m_RefCount: 1
    m_Data: {fileID: 11400000, guid: 32f743c461919b946b63a59c2571a190, type: 2}
  - m_RefCount: 1
    m_Data: {fileID: 11400000, guid: 9fe9c44014d37a7498e82ed5ab89b7ef, type: 2}
  - m_RefCount: 1
    m_Data: {fileID: 11400000, guid: aa9e8e6f4baae62469dc3bc8dc653a4b, type: 2}
  - m_RefCount: 1
    m_Data: {fileID: 11400000, guid: 111941f20eb5e164491d8077f49eb5cc, type: 2}
  - m_RefCount: 1
    m_Data: {fileID: 11400000, guid: 30e82954e4c9117469c95ccd40dff81e, type: 2}
  - m_RefCount: 1
    m_Data: {fileID: 11400000, guid: 512dea1eabee7a0458c22698bd032636, type: 2}
  - m_RefCount: 1
    m_Data: {fileID: 11400000, guid: e5f974830636be64ab8d392599fdf433, type: 2}
  - m_RefCount: 1
    m_Data: {fileID: 11400000, guid: 7618e2012a5a60649992039d21977fe5, type: 2}
  - m_RefCount: 1
    m_Data: {fileID: 11400000, guid: e03613f2c00e2264d875dc5e51bbc68d, type: 2}
  - m_RefCount: 1
    m_Data: {fileID: 11400000, guid: dbf6bb097328f934e98e7952cccb53b5, type: 2}
  - m_RefCount: 1
    m_Data: {fileID: 11400000, guid: 5fa576027f8397d4d8cebffb4ccd3993, type: 2}
  - m_RefCount: 1
    m_Data: {fileID: 11400000, guid: bf066a07c42f27c4c923960154d3e142, type: 2}
  - m_RefCount: 1
    m_Data: {fileID: 11400000, guid: 1f98b16dcf9bbad46a2119d89e638195, type: 2}
  - m_RefCount: 1
    m_Data: {fileID: 11400000, guid: f6132f9a11558e245a82d7b48c39d104, type: 2}
  - m_RefCount: 1
    m_Data: {fileID: 11400000, guid: 9974165ce0184174cb7b143b0c3beb85, type: 2}
  - m_RefCount: 1
    m_Data: {fileID: 11400000, guid: bab972830c5e54647b22986b87cbef71, type: 2}
  - m_RefCount: 1
    m_Data: {fileID: 11400000, guid: e5c2c77daf5fdfe4c9c2f5c4a4ab6d58, type: 2}
  - m_RefCount: 1
    m_Data: {fileID: 11400000, guid: 6a5a71d214d4e804bafa2299d0bf355b, type: 2}
  m_TileSpriteArray:
  - m_RefCount: 1
    m_Data: {fileID: 7232362814000993144, guid: ef25f1d0e935cbc49bd9313e2d39f1dc, type: 3}
  - m_RefCount: 1
    m_Data: {fileID: 534897954731047328, guid: ef25f1d0e935cbc49bd9313e2d39f1dc, type: 3}
  - m_RefCount: 1
    m_Data: {fileID: -2119819873708841569, guid: ef25f1d0e935cbc49bd9313e2d39f1dc, type: 3}
  - m_RefCount: 1
    m_Data: {fileID: 2997941182925873298, guid: ef25f1d0e935cbc49bd9313e2d39f1dc, type: 3}
  - m_RefCount: 1
    m_Data: {fileID: 1858979223543429173, guid: ef25f1d0e935cbc49bd9313e2d39f1dc, type: 3}
  - m_RefCount: 1
    m_Data: {fileID: -1176363886923991713, guid: ef25f1d0e935cbc49bd9313e2d39f1dc, type: 3}
  - m_RefCount: 1
    m_Data: {fileID: 8385469381586762202, guid: ef25f1d0e935cbc49bd9313e2d39f1dc, type: 3}
  - m_RefCount: 1
    m_Data: {fileID: 680690697967773825, guid: ef25f1d0e935cbc49bd9313e2d39f1dc, type: 3}
  - m_RefCount: 1
    m_Data: {fileID: 1659052815161658734, guid: ef25f1d0e935cbc49bd9313e2d39f1dc, type: 3}
  - m_RefCount: 1
    m_Data: {fileID: -3983974749314895912, guid: ef25f1d0e935cbc49bd9313e2d39f1dc, type: 3}
  - m_RefCount: 1
    m_Data: {fileID: -8832430793518216887, guid: ef25f1d0e935cbc49bd9313e2d39f1dc, type: 3}
  - m_RefCount: 1
    m_Data: {fileID: 7502823846432656010, guid: ef25f1d0e935cbc49bd9313e2d39f1dc, type: 3}
  - m_RefCount: 1
    m_Data: {fileID: -2338944441584362964, guid: ef25f1d0e935cbc49bd9313e2d39f1dc, type: 3}
  - m_RefCount: 1
    m_Data: {fileID: -9027025427297953073, guid: ef25f1d0e935cbc49bd9313e2d39f1dc, type: 3}
  - m_RefCount: 1
    m_Data: {fileID: -1492224771858512130, guid: ef25f1d0e935cbc49bd9313e2d39f1dc, type: 3}
  - m_RefCount: 1
    m_Data: {fileID: -2635871272600769229, guid: ef25f1d0e935cbc49bd9313e2d39f1dc, type: 3}
  - m_RefCount: 1
    m_Data: {fileID: -7715349893892224458, guid: ef25f1d0e935cbc49bd9313e2d39f1dc, type: 3}
  - m_RefCount: 1
    m_Data: {fileID: 7608117673755217945, guid: ef25f1d0e935cbc49bd9313e2d39f1dc, type: 3}
  - m_RefCount: 1
    m_Data: {fileID: -2240517053274072707, guid: ef25f1d0e935cbc49bd9313e2d39f1dc, type: 3}
  - m_RefCount: 1
    m_Data: {fileID: -2626503395281067795, guid: ef25f1d0e935cbc49bd9313e2d39f1dc, type: 3}
  - m_RefCount: 1
    m_Data: {fileID: 3377877085740081933, guid: ef25f1d0e935cbc49bd9313e2d39f1dc, type: 3}
  - m_RefCount: 1
    m_Data: {fileID: -4966682836374833665, guid: ef25f1d0e935cbc49bd9313e2d39f1dc, type: 3}
  - m_RefCount: 1
    m_Data: {fileID: -1030890991035827438, guid: ef25f1d0e935cbc49bd9313e2d39f1dc, type: 3}
  - m_RefCount: 1
    m_Data: {fileID: 7501100563546090663, guid: ef25f1d0e935cbc49bd9313e2d39f1dc, type: 3}
  - m_RefCount: 1
    m_Data: {fileID: -6791633094434614731, guid: ef25f1d0e935cbc49bd9313e2d39f1dc, type: 3}
  m_TileMatrixArray:
  - m_RefCount: 25
    m_Data:
      e00: 1
      e01: 0
      e02: 0
      e03: 0
      e10: 0
      e11: 1
      e12: 0
      e13: 0
      e20: 0
      e21: 0
      e22: 1
      e23: 0
      e30: 0
      e31: 0
      e32: 0
      e33: 1
  m_TileColorArray:
  - m_RefCount: 25
    m_Data: {r: 1, g: 1, b: 1, a: 1}
  m_TileObjectToInstantiateArray: []
  m_AnimationFrameRate: 1
  m_Color: {r: 1, g: 1, b: 1, a: 1}
  m_Origin: {x: -2, y: -2, z: 0}
  m_Size: {x: 8, y: 5, z: 1}
  m_TileAnchor: {x: 0.5, y: 0.5, z: 0}
  m_TileOrientation: 0
  m_TileOrientationMatrix:
    e00: 1
    e01: 0
    e02: 0
    e03: 0
    e10: 0
    e11: 1
    e12: 0
    e13: 0
    e20: 0
    e21: 0
    e22: 1
    e23: 0
    e30: 0
    e31: 0
    e32: 0
    e33: 1
--- !u!483693784 &3262298700927295332
TilemapRenderer:
  m_ObjectHideFlags: 0
  m_CorrespondingSourceObject: {fileID: 0}
  m_PrefabInstance: {fileID: 0}
  m_PrefabAsset: {fileID: 0}
  m_GameObject: {fileID: 3944744374267488234}
  m_Enabled: 1
  m_CastShadows: 0
  m_ReceiveShadows: 0
  m_DynamicOccludee: 1
  m_MotionVectors: 1
  m_LightProbeUsage: 0
  m_ReflectionProbeUsage: 0
  m_RayTracingMode: 0
  m_RayTraceProcedural: 0
  m_RenderingLayerMask: 1
  m_RendererPriority: 0
  m_Materials:
  - {fileID: 10754, guid: 0000000000000000f000000000000000, type: 0}
  m_StaticBatchInfo:
    firstSubMesh: 0
    subMeshCount: 0
  m_StaticBatchRoot: {fileID: 0}
  m_ProbeAnchor: {fileID: 0}
  m_LightProbeVolumeOverride: {fileID: 0}
  m_ScaleInLightmap: 1
  m_ReceiveGI: 1
  m_PreserveUVs: 0
  m_IgnoreNormalsForChartDetection: 0
  m_ImportantGI: 0
  m_StitchLightmapSeams: 1
  m_SelectedEditorRenderState: 0
  m_MinimumChartSize: 4
  m_AutoUVMaxDistance: 0.5
  m_AutoUVMaxAngle: 89
  m_LightmapParameters: {fileID: 0}
  m_SortingLayerID: 0
  m_SortingLayer: 0
  m_SortingOrder: 0
  m_ChunkSize: {x: 32, y: 32, z: 32}
  m_ChunkCullingBounds: {x: 0, y: 0, z: 0}
  m_MaxChunkCount: 16
  m_MaxFrameAge: 16
  m_SortOrder: 0
  m_Mode: 0
  m_DetectChunkCullingBounds: 0
  m_MaskInteraction: 0
--- !u!1 &5072366451940906691
GameObject:
  m_ObjectHideFlags: 0
  m_CorrespondingSourceObject: {fileID: 0}
  m_PrefabInstance: {fileID: 0}
  m_PrefabAsset: {fileID: 0}
  serializedVersion: 6
  m_Component:
  - component: {fileID: 2243075909507135321}
  - component: {fileID: 2719182551289007525}
  m_Layer: 31
  m_Name: Ian's decpartion pa;;ette
  m_TagString: Untagged
  m_Icon: {fileID: 0}
  m_NavMeshLayer: 0
  m_StaticEditorFlags: 0
  m_IsActive: 1
--- !u!4 &2243075909507135321
Transform:
  m_ObjectHideFlags: 0
  m_CorrespondingSourceObject: {fileID: 0}
  m_PrefabInstance: {fileID: 0}
  m_PrefabAsset: {fileID: 0}
  m_GameObject: {fileID: 5072366451940906691}
  m_LocalRotation: {x: 0, y: 0, z: 0, w: 1}
  m_LocalPosition: {x: 0, y: 0, z: 0}
  m_LocalScale: {x: 1, y: 1, z: 1}
  m_Children:
  - {fileID: 8306291150703041698}
  m_Father: {fileID: 0}
  m_RootOrder: 0
  m_LocalEulerAnglesHint: {x: 0, y: 0, z: 0}
--- !u!156049354 &2719182551289007525
Grid:
  m_ObjectHideFlags: 0
  m_CorrespondingSourceObject: {fileID: 0}
  m_PrefabInstance: {fileID: 0}
  m_PrefabAsset: {fileID: 0}
  m_GameObject: {fileID: 5072366451940906691}
  m_Enabled: 1
  m_CellSize: {x: 1, y: 1, z: 0}
  m_CellGap: {x: 0, y: 0, z: 0}
  m_CellLayout: 0
  m_CellSwizzle: 0
--- !u!114 &9154348390413314242
MonoBehaviour:
  m_ObjectHideFlags: 0
  m_CorrespondingSourceObject: {fileID: 0}
  m_PrefabInstance: {fileID: 0}
  m_PrefabAsset: {fileID: 0}
  m_GameObject: {fileID: 0}
  m_Enabled: 1
  m_EditorHideFlags: 0
  m_Script: {fileID: 12395, guid: 0000000000000000e000000000000000, type: 0}
  m_Name: Palette Settings
  m_EditorClassIdentifier: 
  cellSizing: 0
